
1609631697~213.81.220.172~10~SK~Slovakia
1609631735~213.81.220.172~10~SK~Slovakia
1609631741~213.81.220.172~10~SK~Slovakia
1609631796~213.81.220.172~10~SK~Slovakia
1609633294~213.81.220.172~10~SK~Slovakia
1609633360~213.81.220.172~10~SK~Slovakia