1609015979~213.81.220.172~9~SK~Slovakia
1609016006~213.81.220.172~9~SK~Slovakia
1609016011~213.81.220.172~8~SK~Slovakia
1609016013~213.81.220.172~6~SK~Slovakia
1609016016~213.81.220.172~7~SK~Slovakia
1609016044~213.81.220.172~8~SK~Slovakia
1609064827~213.81.220.172~9~SK~Slovakia
1609178642~213.81.220.172~9~SK~Slovakia
1609178705~213.81.220.172~9~SK~Slovakia
1609178734~213.81.220.172~9~SK~Slovakia
1609178823~213.81.220.172~9~SK~Slovakia
1609178832~213.81.220.172~9~SK~Slovakia
1609180373~213.81.220.172~9~SK~Slovakia
1609180428~213.81.220.172~9~SK~Slovakia
1609180605~213.81.220.172~9~SK~Slovakia
1609180641~213.81.220.172~9~SK~Slovakia
1609180673~213.81.220.172~9~SK~Slovakia
1609180682~213.81.220.172~9~SK~Slovakia
1609180698~213.81.220.172~9~SK~Slovakia
1609180702~213.81.220.172~9~SK~Slovakia
1609180710~213.81.220.172~9~SK~Slovakia
1609180755~213.81.220.172~9~SK~Slovakia
1609180779~213.81.220.172~9~SK~Slovakia
1609180780~213.81.220.172~9~SK~Slovakia
1609180799~213.81.220.172~9~SK~Slovakia
1609181389~213.81.220.172~7~SK~Slovakia
1609181461~213.81.220.172~7~SK~Slovakia
1609181508~213.81.220.172~7~SK~Slovakia
1609181763~213.81.220.172~6~SK~Slovakia
1609181776~213.81.220.172~6~SK~Slovakia
1609181804~213.81.220.172~6~SK~Slovakia
1609181810~213.81.220.172~6~SK~Slovakia
1609181815~213.81.220.173~6~SK~Slovakia
1609182047~213.81.220.172~5~SK~Slovakia
1609182107~213.81.220.172~5~SK~Slovakia
1609182126~213.81.220.172~5~SK~Slovakia
1609182237~213.81.220.172~5~SK~Slovakia
1609182279~213.81.220.172~5~SK~Slovakia
1609183023~213.81.220.172~8~SK~Slovakia
1609183521~213.81.220.172~2~SK~Slovakia
1609183529~213.81.220.172~3~SK~Slovakia
1609183578~213.81.220.172~3~SK~Slovakia
1609183641~213.81.220.172~9~SK~Slovakia
1609183651~213.81.220.172~6~SK~Slovakia
1609183651~213.81.220.172~7~SK~Slovakia
1609183675~213.81.220.172~9~SK~Slovakia
1609183719~213.81.220.172~7~SK~Slovakia
1609183753~213.81.220.172~9~SK~Slovakia
1609183781~213.81.220.172~9~SK~Slovakia
1609191037~213.81.220.172~10~SK~Slovakia
1609191040~213.81.220.172~10~SK~Slovakia
1609191040~213.81.220.172~10~SK~Slovakia
1609191042~213.81.220.172~10~SK~Slovakia
1609191044~213.81.220.172~10~SK~Slovakia
1609191046~213.81.220.172~10~SK~Slovakia
1609191048~213.81.220.172~10~SK~Slovakia
1609191051~213.81.220.172~10~SK~Slovakia
1609191091~213.81.220.172~4~SK~Slovakia
1609191175~213.81.220.172~7~SK~Slovakia
1609191178~213.81.220.172~7~SK~Slovakia
1609191180~213.81.220.172~7~SK~Slovakia
1609191181~213.81.220.172~7~SK~Slovakia
1609584307~213.81.220.172~10~SK~Slovakia
1609584536~213.81.220.172~10~SK~Slovakia
1609631334~213.81.220.172~10~SK~Slovakia
1609631682~213.81.220.172~10~SK~Slovakia